<?xml version="1.0" encoding="UTF-8"?>
<svg id="a" width="22px" height="22px" version="1.1" viewBox="0 0 22 22" xmlns="http://www.w3.org/2000/svg">
 <g class="ColorScheme-Text" transform="matrix(1.0672 0 0 1.0672 -.73956 -.73956)" fill="none" stroke="#000">
  <path d="m17.091 12.874v-7.0275h-11.244" opacity=".998" stroke-width="1"/>
  <path d="m4.9095 9.126v7.0275h11.244" stroke-width="1"/>
  <path d="m9.2137 4.0396-4.4683 1.8069 4.4683 1.8069" stroke-linecap="square" stroke-width="1"/>
  <path d="m12.784 14.431 4.4391 1.7222-4.4391 1.7222" stroke-linecap="square" stroke-width="1"/>
 </g>
</svg>
